[gd_scene load_steps=3 format=3 uid="uid://d01pnkgx85v0d"]

[ext_resource type="PackedScene" uid="uid://brtnax7h1oneb" path="res://Scenes/Levels/world_test.tscn" id="1_8owpn"]
[ext_resource type="PackedScene" uid="uid://3n0mfehpksex" path="res://Scenes/Objects/player.tscn" id="2_d7fb7"]

[node name="Node2D" type="Node2D"]
y_sort_enabled = true

[node name="WorldTest" parent="." instance=ExtResource("1_8owpn")]
z_index = -10

[node name="Player" parent="." groups=["player"] instance=ExtResource("2_d7fb7")]
unique_name_in_owner = true
collision_mask = 1
