[gd_scene load_steps=4 format=3 uid="uid://bg3nbj2n5ox1j"]

[ext_resource type="Script" path="res://Scripts/GenericBullet.gd" id="1_v74mg"]
[ext_resource type="Texture2D" uid="uid://bbklck7j17o3n" path="res://Assets/Placeholders/triangle.svg" id="2_awiat"]

[sub_resource type="CircleShape2D" id="CircleShape2D_t7gbg"]
radius = 5.0

[node name="Bullet" type="ShapeCast2D"]
shape = SubResource("CircleShape2D_t7gbg")
target_position = Vector2(0, 0)
max_results = 1
collision_mask = 4
collide_with_areas = true
collide_with_bodies = false
script = ExtResource("1_v74mg")

[node name="Sprite2D" type="Sprite2D" parent="."]
self_modulate = Color(0, 0.670588, 1, 1)
position = Vector2(0, -1)
texture = ExtResource("2_awiat")
